<svg xmlns="http://www.w3.org/2000/svg" xmlns:xlink="http://www.w3.org/1999/xlink" style="margin:auto;background:#fff;display:block;" width="200px" height="200px" viewBox="0 0 100 100" preserveAspectRatio="xMidYMid">
<circle cx="50" cy="50" fill="none" stroke="#fa4a69" stroke-width="10" r="35" stroke-dasharray="164.93361431346415 56.97787143782138" transform="rotate(352.519 50.0001 50.0001)">
  <animateTransform attributeName="transform" type="rotate" repeatCount="indefinite" dur="3.3333333333333335s" values="0 50 50;360 50 50" keyTimes="0;1"></animateTransform>
</circle>
</svg>